…
df %>% 
  mutate(
    vowels = str_count(word, "[aeiou]")
        ) %>% 
  arrange(desc(vowels)) %>% 
  mutate()
```

```
## # A tibble: 980 x 3
##    word            i vowels
##    <chr>       <int>  <int>
##  1 appropriate    48      5
##  2 associate      57      5
##  3 available      62      5
##  4 colleague     166      5
##  5 encourage     268      5
##  6 experience    292      5
##  7 individual    423      5
##  8 television    846      5
##  9 absolute        4      4
## 10 achieve         7      4
## # ... with 970 more rows
```
…
