Homework 06: Data wrangling wrap up
…
There are eight words tied for the most vowels (5).

Lets arange by proportion to find the word has the highest proportion of vowels:

arrange(df.vowels, desc(proportion))

## # A tibble: 980 x 4
##    word       i vowels proportion
##    <chr>  <int>  <int>      <dbl>
##  1 a          1      1      1    
##  2 area      49      3      0.75 
##  3 idea     412      3      0.75 
##  4 europe   278      4      0.667
##  5 age       22      2      0.667
##  6 ago       24      2      0.667
##  7 air       26      2      0.667
##  8 die      228      2      0.667
##  9 due      250      2      0.667
## 10 eat      256      2      0.667
## # ... with 970 more rows
…
